[{"line":1,"elements":[{"line":4,"name":"Writing to a file","description":"","id":"writing-to-a-file","type":"scenario","keyword":"Scenario","steps":[{"name":"def temp = Java.type('misc.Utils')","result":{"duration":1987400,"status":"passed"},"match":{"location":"karate","arguments":[]},"keyword":"*","line":6,"doc_string":{"content_type":"","value":"16:03:45.132 From karate-config file","line":6}},{"name":"url \"https:\/\/reqres.in\/api\/users?page=2\"","result":{"duration":1177600,"status":"passed"},"match":{"location":"karate","arguments":[]},"keyword":"Given","line":7},{"name":"method get","result":{"duration":235422000,"status":"passed"},"match":{"location":"karate","arguments":[]},"keyword":"When","line":8,"doc_string":{"content_type":"","value":"16:03:45.148 request:\n1 > GET https:\/\/reqres.in\/api\/users?page=2\n1 > Accept-Encoding: gzip,deflate\n1 > Connection: Keep-Alive\n1 > Host: reqres.in\n1 > User-Agent: Apache-HttpClient\/4.5.12 (Java\/1.8.0_251)\n\n16:03:45.382 response time in milliseconds: 233.48\n1 < 200\n1 < Access-Control-Allow-Origin: *\n1 < Age: 3521\n1 < CF-Cache-Status: HIT\n1 < CF-RAY: 61cbf99f8c0fe24f-SIN\n1 < Cache-Control: max-age=14400\n1 < Connection: keep-alive\n1 < Content-Type: application\/json; charset=utf-8\n1 < Date: Fri, 05 Feb 2021 10:33:46 GMT\n1 < Etag: W\/\"406-ut0vzoCuidvyMf8arZpMpJ6ZRDw\"\n1 < Expect-CT: max-age=604800, report-uri=\"https:\/\/report-uri.cloudflare.com\/cdn-cgi\/beacon\/expect-ct\"\n1 < NEL: {\"max_age\":604800,\"report_to\":\"cf-nel\"}\n1 < Report-To: {\"group\":\"cf-nel\",\"max_age\":604800,\"endpoints\":[{\"url\":\"https:\\\/\\\/a.nel.cloudflare.com\\\/report?s=Vjs7aWv%2FPNJS44cd3JO%2F%2BFxDbmk%2Fu10B2%2BUYRWo2cEn%2BZI6s0E6l%2BJE6BfWMQ3zmIBQig9%2B5KZdYS8MBg5WXTgUMb%2FMdwkdRM4o%3D\"}]}\n1 < Server: cloudflare\n1 < Set-Cookie: __cfduid=d35d87afe76b978563f617960e4ca5b791612521226; expires=Sun, 07-Mar-21 10:33:46 GMT; path=\/; domain=.reqres.in; HttpOnly; SameSite=Lax; Secure\n1 < Transfer-Encoding: chunked\n1 < Vary: Accept-Encoding\n1 < Via: 1.1 vegur\n1 < X-Powered-By: Express\n1 < cf-request-id: 08135a57b70000e24f1180b000000001\n{\"page\":2,\"per_page\":6,\"total\":12,\"total_pages\":2,\"data\":[{\"id\":7,\"email\":\"michael.lawson@reqres.in\",\"first_name\":\"Michael\",\"last_name\":\"Lawson\",\"avatar\":\"https:\/\/reqres.in\/img\/faces\/7-image.jpg\"},{\"id\":8,\"email\":\"lindsay.ferguson@reqres.in\",\"first_name\":\"Lindsay\",\"last_name\":\"Ferguson\",\"avatar\":\"https:\/\/reqres.in\/img\/faces\/8-image.jpg\"},{\"id\":9,\"email\":\"tobias.funke@reqres.in\",\"first_name\":\"Tobias\",\"last_name\":\"Funke\",\"avatar\":\"https:\/\/reqres.in\/img\/faces\/9-image.jpg\"},{\"id\":10,\"email\":\"byron.fields@reqres.in\",\"first_name\":\"Byron\",\"last_name\":\"Fields\",\"avatar\":\"https:\/\/reqres.in\/img\/faces\/10-image.jpg\"},{\"id\":11,\"email\":\"george.edwards@reqres.in\",\"first_name\":\"George\",\"last_name\":\"Edwards\",\"avatar\":\"https:\/\/reqres.in\/img\/faces\/11-image.jpg\"},{\"id\":12,\"email\":\"rachel.howell@reqres.in\",\"first_name\":\"Rachel\",\"last_name\":\"Howell\",\"avatar\":\"https:\/\/reqres.in\/img\/faces\/12-image.jpg\"}],\"support\":{\"url\":\"https:\/\/reqres.in\/#support-heading\",\"text\":\"To keep ReqRes free, contributions towards server costs are appreciated!\"}}","line":8}},{"name":"status 200","result":{"duration":6300,"status":"passed"},"match":{"location":"karate","arguments":[]},"keyword":"Then","line":9},{"name":"def res = get response","result":{"duration":83200,"status":"passed"},"match":{"location":"karate","arguments":[]},"keyword":"*","line":15},{"name":"print res","result":{"duration":367900,"status":"passed"},"match":{"location":"karate","arguments":[]},"keyword":"*","line":16,"doc_string":{"content_type":"","value":"16:03:45.382 [print] {\n  \"per_page\": 6,\n  \"total\": 12,\n  \"data\": [\n    {\n      \"last_name\": \"Lawson\",\n      \"id\": 7,\n      \"avatar\": \"https:\/\/reqres.in\/img\/faces\/7-image.jpg\",\n      \"first_name\": \"Michael\",\n      \"email\": \"michael.lawson@reqres.in\"\n    },\n    {\n      \"last_name\": \"Ferguson\",\n      \"id\": 8,\n      \"avatar\": \"https:\/\/reqres.in\/img\/faces\/8-image.jpg\",\n      \"first_name\": \"Lindsay\",\n      \"email\": \"lindsay.ferguson@reqres.in\"\n    },\n    {\n      \"last_name\": \"Funke\",\n      \"id\": 9,\n      \"avatar\": \"https:\/\/reqres.in\/img\/faces\/9-image.jpg\",\n      \"first_name\": \"Tobias\",\n      \"email\": \"tobias.funke@reqres.in\"\n    },\n    {\n      \"last_name\": \"Fields\",\n      \"id\": 10,\n      \"avatar\": \"https:\/\/reqres.in\/img\/faces\/10-image.jpg\",\n      \"first_name\": \"Byron\",\n      \"email\": \"byron.fields@reqres.in\"\n    },\n    {\n      \"last_name\": \"Edwards\",\n      \"id\": 11,\n      \"avatar\": \"https:\/\/reqres.in\/img\/faces\/11-image.jpg\",\n      \"first_name\": \"George\",\n      \"email\": \"george.edwards@reqres.in\"\n    },\n    {\n      \"last_name\": \"Howell\",\n      \"id\": 12,\n      \"avatar\": \"https:\/\/reqres.in\/img\/faces\/12-image.jpg\",\n      \"first_name\": \"Rachel\",\n      \"email\": \"rachel.howell@reqres.in\"\n    }\n  ],\n  \"page\": 2,\n  \"total_pages\": 2,\n  \"support\": {\n    \"text\": \"To keep ReqRes free, contributions towards server costs are appreciated!\",\n    \"url\": \"https:\/\/reqres.in\/#support-heading\"\n  }\n}","line":16}},{"name":"temp.writeToFile(\"result.json\", res);","result":{"duration":2598600,"status":"passed"},"match":{"location":"karate","arguments":[]},"keyword":"*","line":17},{"name":"temp.writeToFile(\"result.txt\", res);","result":{"duration":2493700,"status":"passed"},"match":{"location":"karate","arguments":[]},"keyword":"*","line":18,"doc_string":{"content_type":"","value":"16:03:45.382 after scenario inside config","line":18}}]},{"line":20,"name":"Reading result json file","description":"","id":"reading-result-json-file","type":"scenario","keyword":"Scenario","steps":[{"name":"def jsonData = read(\"classpath:result.json\")","result":{"duration":2943500,"status":"passed"},"match":{"location":"karate","arguments":[]},"keyword":"*","line":22,"doc_string":{"content_type":"","value":"16:03:45.179 From karate-config file","line":22}},{"name":"def textData = read(\"classpath:result.txt\")","result":{"duration":2307600,"status":"passed"},"match":{"location":"karate","arguments":[]},"keyword":"*","line":23},{"name":"print jsonData","result":{"duration":442000,"status":"passed"},"match":{"location":"karate","arguments":[]},"keyword":"*","line":24,"doc_string":{"content_type":"","value":"16:03:45.179 [print] {\n  \"per_page\": 6,\n  \"total\": 12,\n  \"data\": [\n    {\n      \"last_name\": \"Lawson\",\n      \"id\": 7,\n      \"avatar\": \"https:\/\/reqres.in\/img\/faces\/7-image.jpg\",\n      \"first_name\": \"Michael\",\n      \"email\": \"michael.lawson@reqres.in\"\n    },\n    {\n      \"last_name\": \"Ferguson\",\n      \"id\": 8,\n      \"avatar\": \"https:\/\/reqres.in\/img\/faces\/8-image.jpg\",\n      \"first_name\": \"Lindsay\",\n      \"email\": \"lindsay.ferguson@reqres.in\"\n    },\n    {\n      \"last_name\": \"Funke\",\n      \"id\": 9,\n      \"avatar\": \"https:\/\/reqres.in\/img\/faces\/9-image.jpg\",\n      \"first_name\": \"Tobias\",\n      \"email\": \"tobias.funke@reqres.in\"\n    },\n    {\n      \"last_name\": \"Fields\",\n      \"id\": 10,\n      \"avatar\": \"https:\/\/reqres.in\/img\/faces\/10-image.jpg\",\n      \"first_name\": \"Byron\",\n      \"email\": \"byron.fields@reqres.in\"\n    },\n    {\n      \"last_name\": \"Edwards\",\n      \"id\": 11,\n      \"avatar\": \"https:\/\/reqres.in\/img\/faces\/11-image.jpg\",\n      \"first_name\": \"George\",\n      \"email\": \"george.edwards@reqres.in\"\n    },\n    {\n      \"last_name\": \"Howell\",\n      \"id\": 12,\n      \"avatar\": \"https:\/\/reqres.in\/img\/faces\/12-image.jpg\",\n      \"first_name\": \"Rachel\",\n      \"email\": \"rachel.howell@reqres.in\"\n    }\n  ],\n  \"page\": 2,\n  \"total_pages\": 2,\n  \"support\": {\n    \"text\": \"To keep ReqRes free, contributions towards server costs are appreciated!\",\n    \"url\": \"https:\/\/reqres.in\/#support-heading\"\n  }\n}","line":24}},{"name":"print textData","result":{"duration":63700,"status":"passed"},"match":{"location":"karate","arguments":[]},"keyword":"*","line":25,"doc_string":{"content_type":"","value":"16:03:45.179 [print] {\"per_page\":6,\"total\":12,\"data\":[{\"last_name\":\"Lawson\",\"id\":7,\"avatar\":\"https:\\\/\\\/reqres.in\\\/img\\\/faces\\\/7-image.jpg\",\"first_name\":\"Michael\",\"email\":\"michael.lawson@reqres.in\"},{\"last_name\":\"Ferguson\",\"id\":8,\"avatar\":\"https:\\\/\\\/reqres.in\\\/img\\\/faces\\\/8-image.jpg\",\"first_name\":\"Lindsay\",\"email\":\"lindsay.ferguson@reqres.in\"},{\"last_name\":\"Funke\",\"id\":9,\"avatar\":\"https:\\\/\\\/reqres.in\\\/img\\\/faces\\\/9-image.jpg\",\"first_name\":\"Tobias\",\"email\":\"tobias.funke@reqres.in\"},{\"last_name\":\"Fields\",\"id\":10,\"avatar\":\"https:\\\/\\\/reqres.in\\\/img\\\/faces\\\/10-image.jpg\",\"first_name\":\"Byron\",\"email\":\"byron.fields@reqres.in\"},{\"last_name\":\"Edwards\",\"id\":11,\"avatar\":\"https:\\\/\\\/reqres.in\\\/img\\\/faces\\\/11-image.jpg\",\"first_name\":\"George\",\"email\":\"george.edwards@reqres.in\"},{\"last_name\":\"Howell\",\"id\":12,\"avatar\":\"https:\\\/\\\/reqres.in\\\/img\\\/faces\\\/12-image.jpg\",\"first_name\":\"Rachel\",\"email\":\"rachel.howell@reqres.in\"}],\"page\":2,\"total_pages\":2,\"support\":{\"text\":\"To keep ReqRes free, contributions towards server costs are appreciated!\",\"url\":\"https:\\\/\\\/reqres.in\\\/#support-heading\"}}16:03:45.179 after scenario inside config","line":25}}]}],"name":"feauturefiles\/karate16.feature","description":"Karate Test Suite 16\nWriting Response to an External File","id":"karate-test-suite-16","keyword":"Feature","uri":"feauturefiles\/karate16.feature"}]